Engine/Binaries/Win64/UE4Game.exe	2019-08-29T16:52:52.488Z
Engine/Binaries/ThirdParty/Oculus/OVRPlugin/OVRPlugin/Win64/OVRPlugin.dll	2019-08-29T16:51:39.121Z
Engine/Binaries/ThirdParty/DbgHelp/dbghelp.dll	2019-08-29T16:51:00.966Z
Engine/Binaries/ThirdParty/libsndfile/Win64/libsndfile-1.dll	2019-08-29T16:51:01.670Z
Engine/Binaries/ThirdParty/NVIDIA/NVaftermath/Win64/GFSDK_Aftermath_Lib.x64.dll	2019-08-29T16:51:38.875Z
Engine/Binaries/ThirdParty/Windows/DirectX/x64/WinPixEventRuntime.dll	2019-08-29T16:52:34.674Z
Engine/Binaries/ThirdParty/PhysX3/Win64/VS2015/PxFoundationPROFILE_x64.dll	2019-08-29T16:51:45.438Z
Engine/Binaries/ThirdParty/PhysX3/Win64/VS2015/PxPvdSDKPROFILE_x64.dll	2019-08-29T16:51:45.480Z
Engine/Binaries/ThirdParty/PhysX3/Win64/VS2015/PhysX3PROFILE_x64.dll	2019-08-29T16:51:45.340Z
Engine/Binaries/ThirdParty/PhysX3/Win64/VS2015/PhysX3CookingPROFILE_x64.dll	2019-08-29T16:51:45.312Z
Engine/Binaries/ThirdParty/PhysX3/Win64/VS2015/PhysX3CommonPROFILE_x64.dll	2019-08-29T16:51:45.231Z
Engine/Binaries/ThirdParty/PhysX3/Win64/VS2015/APEX_ClothingPROFILE_x64.dll	2019-08-29T16:51:44.374Z
Engine/Binaries/ThirdParty/PhysX3/Win64/VS2015/APEX_LegacyPROFILE_x64.dll	2019-08-29T16:51:44.795Z
Engine/Binaries/ThirdParty/PhysX3/Win64/VS2015/ApexFrameworkPROFILE_x64.dll	2019-08-29T16:51:44.944Z
Engine/Binaries/ThirdParty/PhysX3/Win64/VS2015/NvClothPROFILE_x64.dll	2019-08-29T16:51:45.068Z
Engine/Binaries/ThirdParty/OpenVR/OpenVRv1_0_16/Win64/openvr_api.dll	2019-08-29T16:51:39.393Z
Engine/Binaries/ThirdParty/Ogg/Win64/VS2015/libogg_64.dll	2019-08-29T16:51:39.253Z
Engine/Binaries/ThirdParty/Vorbis/Win64/VS2015/libvorbis_64.dll	2019-08-29T16:52:34.027Z
Engine/Binaries/ThirdParty/Vorbis/Win64/VS2015/libvorbisfile_64.dll	2019-08-29T16:52:34.036Z
MyProject.exe	2019-09-05T18:41:28.782Z
